…
``` r
df <- df_raw
```

|                         |
|-------------------------|
| \#\# first look at data |

``` r
head(df_raw, 25)
```

    ## # A tibble: 25 x 13
    ##    Model       `Release date` `Max resolution` `Low resolution` `Effective pixe~
    ##    <chr>                <dbl>            <dbl>            <dbl>            <dbl>
    ##  1 Agfa ePhot~           1997             1024              640                0
    ##  2 Agfa ePhot~           1998             1280              640                1
    ##  3 Agfa ePhot~           2000              640                0                0
    ##  4 Agfa ePhot~           1999             1152              640                0
    ##  5 Agfa ePhot~           1999             1152              640                0
    ##  6 Agfa ePhot~           2001             1600              640                1
    ##  7 Agfa ePhot~           1999             1280              640                1
    ##  8 Canon Powe~           1997              640                0                0
    ##  9 Canon Powe~           1996              832              640                0
    ## 10 Canon Powe~           2001             1280             1024                1
    ## # ... with 15 more rows, and 8 more variables: Zoom wide (W) <dbl>,
    ## #   Zoom tele (T) <dbl>, Normal focus range <dbl>, Macro focus range <dbl>,
    ## #   Storage included <dbl>, Weight (inc. batteries) <dbl>, Dimensions <dbl>,
    ## #   Price <dbl>
…
