…
``` r
tmp_df <- scale_df

library(NbClust) # determining the optimal number of clusters in a data set
library(cluster) # computes agglomerative hierarchical clustering of the dataset

# k-means clustering via the kmeans(), centers corresponds to the number of desired clusters
kmeans_model <- kmeans(tmp_df, centers = no_k, nstart = 30) 
# store cluster in original data set as column
df_cluster <- tibble(value_df, cluster = as.factor(kmeans_model$cluster)) 
df_cluster
```

    ## # A tibble: 880 x 10
    ##    brand release_date max_resolution zoom_wide_w zoom_tele_t normal_focus_range
    ##    <chr>        <dbl>          <dbl>       <dbl>       <dbl>              <dbl>
    ##  1 Agfa          1997           1024          38         114                 70
    ##  2 Agfa          1998           1280          38         114                 50
    ##  3 Agfa          1999           1152          43          43                 50
    ##  4 Agfa          2001           1600          51          51                 50
    ##  5 Canon         1997            640          42          42                 70
    ##  6 Canon         1996            832          50          50                 40
    ##  7 Canon         2001           1280          35         105                 76
    ##  8 Canon         2002           1280          39          39                 20
    ##  9 Canon         2001           1600          35         105                 76
    ## 10 Canon         2002           1600          39          39                 20
    ## # ... with 870 more rows, and 4 more variables: weight_inc_batteries <dbl>,
    ## #   dimensions <dbl>, price <dbl>, cluster <fct>
…
