…
## import data

``` r
df_raw <- read_csv(file = '../data/DOHMH_New_York_City_Restaurant_Inspection_Results.csv') 
df <- df_raw
```

## first look at data

``` r
head(df_raw, 25)
```

    ## # A tibble: 25 x 26
    ##      CAMIS DBA        BORO  BUILDING STREET   ZIPCODE PHONE  `CUISINE DESCRIPTI~
    ##      <dbl> <chr>      <chr> <chr>    <chr>      <dbl> <chr>  <chr>              
    ##  1  5.00e7 LA CHACRA  Broo~ 1928     BATH AV~   11214 71875~ Peruvian           
    ##  2  4.14e7 MING'S RE~ Manh~ 413415   9 AVENUE      NA 21286~ Chinese            
    ##  3  4.13e7 T BAAR     Broo~ 4823     8 AVENUE   11220 34735~ Juice, Smoothies, ~
    ##  4  5.01e7 GRAB AND ~ Manh~ 20       WEST   ~   10036 64626~ Jewish/Kosher      
    ##  5  5.00e7 BHATTI IN~ Manh~ 100      LEXINGT~   10016 21268~ Indian             
    ##  6  4.11e7 JADE GARD~ Quee~ 170-12A  HILLSID~   11432 71865~ Chinese            
    ##  7  4.07e7 LENNY'S B~ Manh~ 2601     BROADWAY   10025 21222~ Bagels/Pretzels    
    ##  8  5.00e7 ROKC       Manh~ 3452     BROADWAY   10031 34774~ Japanese           
    ##  9  5.01e7 TWIST      Broo~ 4202     3 AVENUE   11232 64663~ Seafood            
    ## 10  5.01e7 WOODHAVEN~ Quee~ 10509    CROSSBA~   11417 71852~ Pizza              
    ## # ... with 15 more rows, and 18 more variables: INSPECTION DATE <chr>,
    ## #   ACTION <chr>, VIOLATION CODE <chr>, VIOLATION DESCRIPTION <chr>,
    ## #   CRITICAL FLAG <chr>, SCORE <dbl>, GRADE <chr>, GRADE DATE <chr>,
    ## #   RECORD DATE <chr>, INSPECTION TYPE <chr>, Latitude <dbl>, Longitude <dbl>,
    ## #   Community Board <dbl>, Council District <chr>, Census Tract <chr>,
    ## #   BIN <dbl>, BBL <dbl>, NTA <chr>
…
